^C:\USERS\ILAYPC\DOWNLOADS\STREAM\STREAM\FILESTREAM.CPP
/c /ZI /nologo /W3 /WX- /diagnostics:classic /sdl /Od /Oy- /D _MBCS /Gm- /EHsc /RTC1 /MDd /GS /fp:precise /permissive- /Zc:wchar_t /Zc:forScope /Zc:inline /Fo"DEBUG\\" /Fd"DEBUG\STREAM.PDB" /Gd /TP /analyze- /FC C:\USERS\ILAYPC\DOWNLOADS\STREAM\STREAM\FILESTREAM.CPP
^C:\USERS\ILAYPC\DOWNLOADS\STREAM\STREAM\LOGGER.CPP
/c /ZI /nologo /W3 /WX- /diagnostics:classic /sdl /Od /Oy- /D _MBCS /Gm- /EHsc /RTC1 /MDd /GS /fp:precise /permissive- /Zc:wchar_t /Zc:forScope /Zc:inline /Fo"DEBUG\\" /Fd"DEBUG\STREAM.PDB" /Gd /TP /analyze- /FC C:\USERS\ILAYPC\DOWNLOADS\STREAM\STREAM\LOGGER.CPP
^C:\USERS\ILAYPC\DOWNLOADS\STREAM\STREAM\MAIN.CPP
/c /ZI /nologo /W3 /WX- /diagnostics:classic /sdl /Od /Oy- /D _MBCS /Gm- /EHsc /RTC1 /MDd /GS /fp:precise /permissive- /Zc:wchar_t /Zc:forScope /Zc:inline /Fo"DEBUG\\" /Fd"DEBUG\STREAM.PDB" /Gd /TP /analyze- /FC C:\USERS\ILAYPC\DOWNLOADS\STREAM\STREAM\MAIN.CPP
^C:\USERS\ILAYPC\DOWNLOADS\STREAM\STREAM\OUTSTREAM.CPP
/c /ZI /nologo /W3 /WX- /diagnostics:classic /sdl /Od /Oy- /D _MBCS /Gm- /EHsc /RTC1 /MDd /GS /fp:precise /permissive- /Zc:wchar_t /Zc:forScope /Zc:inline /Fo"DEBUG\\" /Fd"DEBUG\STREAM.PDB" /Gd /TP /analyze- /FC C:\USERS\ILAYPC\DOWNLOADS\STREAM\STREAM\OUTSTREAM.CPP
^C:\USERS\ILAYPC\DOWNLOADS\STREAM\STREAM\OUTSTREAMENCRYPTED.CPP
/c /ZI /nologo /W3 /WX- /diagnostics:classic /sdl /Od /Oy- /D _MBCS /Gm- /EHsc /RTC1 /MDd /GS /fp:precise /permissive- /Zc:wchar_t /Zc:forScope /Zc:inline /Fo"DEBUG\\" /Fd"DEBUG\STREAM.PDB" /Gd /TP /analyze- /FC C:\USERS\ILAYPC\DOWNLOADS\STREAM\STREAM\OUTSTREAMENCRYPTED.CPP
