#Command: "C:\Program Files (x86)\Microsoft Visual Studio\2017\Community\VC\Tools\MSVC\14.13.26128\bin\HostX86\x86\link.exe" /ERRORREPORT:PROMPT @C:\Users\ilaypc\AppData\Local\Temp\tmp056056a1553c408f97a83907048437a3.rsp /incremental /nologo /fullbuild
^C:\USERS\ILAYPC\DOWNLOADS\STREAM\STREAM\DEBUG\FILESTREAM.OBJ|C:\USERS\ILAYPC\DOWNLOADS\STREAM\STREAM\DEBUG\LOGGER.OBJ|C:\USERS\ILAYPC\DOWNLOADS\STREAM\STREAM\DEBUG\MAIN.OBJ|C:\USERS\ILAYPC\DOWNLOADS\STREAM\STREAM\DEBUG\OUTSTREAM.OBJ|C:\USERS\ILAYPC\DOWNLOADS\STREAM\STREAM\DEBUG\OUTSTREAMENCRYPTED.OBJ
C:\USERS\ILAYPC\DOWNLOADS\STREAM\DEBUG\STREAM.PDB
